%YAML 1.1
%TAG !u! tag:unity3d.com,2011:
--- !u!1 &135296
GameObject:
  m_ObjectHideFlags: 0
  m_PrefabParentObject: {fileID: 0}
  m_PrefabInternal: {fileID: 100100000}
  serializedVersion: 4
  m_Component:
  - 4: {fileID: 435296}
  - 114: {fileID: 11435296}
  m_Layer: 0
  m_Name: part_weapon_melee_axe-a
  m_TagString: Untagged
  m_Icon: {fileID: 0}
  m_NavMeshLayer: 0
  m_StaticEditorFlags: 0
  m_IsActive: 1
--- !u!4 &435296
Transform:
  m_ObjectHideFlags: 1
  m_PrefabParentObject: {fileID: 0}
  m_PrefabInternal: {fileID: 100100000}
  m_GameObject: {fileID: 135296}
  m_LocalRotation: {x: 0, y: 0, z: 0, w: 1}
  m_LocalPosition: {x: 0, y: 0, z: 0}
  m_LocalScale: {x: 1, y: 1, z: 1}
  m_LocalEulerAnglesHint: {x: 0, y: 0, z: 0}
  m_Children: []
  m_Father: {fileID: 0}
  m_RootOrder: 0
--- !u!114 &11435296
MonoBehaviour:
  m_ObjectHideFlags: 1
  m_PrefabParentObject: {fileID: 0}
  m_PrefabInternal: {fileID: 100100000}
  m_GameObject: {fileID: 135296}
  m_Enabled: 1
  m_EditorHideFlags: 0
  m_Script: {fileID: 11500000, guid: c5c80825ad1ebda418f75023495f237b, type: 3}
  m_Name: 
  m_EditorClassIdentifier: 
  m_package_name: axe-a
  m_type: 5
  m_search_order: 3
  m_eye_pos: {x: 0, y: 0}
  m_color_count: 1
  m_items_armor: []
  m_items_unit: []
  m_items_weapon:
  - sprite_weapon: {fileID: 21300000, guid: 374003768aed7cd4fbe82e61a716fe79, type: 3}
  - sprite_weapon: {fileID: 21300000, guid: 5cc6dbb21e10c0043954c3e762a2b50f, type: 3}
  - sprite_weapon: {fileID: 21300000, guid: 540f175bedcc7bb48a5a843663139df8, type: 3}
  - sprite_weapon: {fileID: 21300000, guid: 79f6fa560e676dd419469f237651cba1, type: 3}
  - sprite_weapon: {fileID: 21300000, guid: aba57d8314c8e47479901fed03cf24dd, type: 3}
  - sprite_weapon: {fileID: 21300000, guid: 9bf4c4506fb602443948db846ba1a615, type: 3}
  - sprite_weapon: {fileID: 21300000, guid: c4ae9377838494340bac72a559b75af1, type: 3}
  m_items_wing: []
--- !u!1001 &100100000
Prefab:
  m_ObjectHideFlags: 1
  serializedVersion: 2
  m_Modification:
    m_TransformParent: {fileID: 0}
    m_Modifications: []
    m_RemovedComponents: []
  m_ParentPrefab: {fileID: 0}
  m_RootGameObject: {fileID: 135296}
  m_IsPrefabParent: 1
